2019-04-11 16:23:29,814 [1]  INFO Microsoft.AspNetCore.DataProtection.KeyManagement.XmlKeyManager [(null)] - User profile is available. Using 'C:\Users\jpvargas\AppData\Local\ASP.NET\DataProtection-Keys' as key repository and Windows DPAPI to encrypt keys at rest.
2019-04-11 16:23:32,757 [6]  INFO Microsoft.AspNetCore.Hosting.Internal.WebHost [(null)] - Request starting HTTP/1.1 GET http://localhost:63899/api/log   [1]
2019-04-11 16:23:32,783 [6]  WARN Microsoft.AspNetCore.HttpsPolicy.HttpsRedirectionMiddleware [(null)] - Failed to determine the https port for redirect. [3]
2019-04-11 16:23:36,595 [6]  INFO Microsoft.AspNetCore.Hosting.Internal.WebHost [(null)] - Request finished in 3800.5915ms 404  [2]
2019-04-11 16:23:59,466 [6]  INFO Microsoft.AspNetCore.Hosting.Internal.WebHost [(null)] - Request starting HTTP/1.1 POST http://localhost:63899/api/log/write application/json; charset=utf-8 2442 [1]
2019-04-11 16:23:59,476 [6]  INFO Microsoft.AspNetCore.Routing.EndpointMiddleware [(null)] - Executing endpoint 'Facturador.Log.API.Controllers.LogController.Write (Facturador.Log.API)'
2019-04-11 16:23:59,550 [6]  INFO Microsoft.AspNetCore.Mvc.Internal.ControllerActionInvoker [(null)] - Route matched with {action = "Write", controller = "Log"}. Executing action Facturador.Log.API.Controllers.LogController.Write (Facturador.Log.API) [1]
2019-04-11 16:23:59,765 [6]  INFO Microsoft.AspNetCore.Mvc.Internal.ControllerActionInvoker [(null)] - Executing action method Facturador.Log.API.Controllers.LogController.Write (Facturador.Log.API) with arguments (Facturador.Transversal.Common.Entities.LogRequest) - Validation state: Valid [1]
2019-04-11 16:24:01,838 [6] ERROR Facturador.Log.Domain.Loging.LogDomain [(null)] - System.FormatException: Input string was not in a correct format.
   at System.Number.StringToNumber(ReadOnlySpan`1 str, NumberStyles options, NumberBuffer& number, NumberFormatInfo info, Boolean parseDecimal)
   at System.Number.ParseInt32(ReadOnlySpan`1 s, NumberStyles style, NumberFormatInfo info)
   at System.Int32.Parse(String s)
   at Facturador.Core.Domain.Inventario.ItemDomain.Listar() in C:\JP\facturador-backend\Facturador.Core.Domain.Inventario\ItemDomain.cs:line 50
   at Facturador.Core.API.Inventario.Controllers.ItemController.Listar() in C:\JP\facturador-backend\Facturador.Core.API.Inventario\Controllers\ItemController.cs:line 33
   at lambda_method(Closure , Object , Object[] )
   at Microsoft.Extensions.Internal.ObjectMethodExecutor.Execute(Object target, Object[] parameters)
   at Microsoft.AspNetCore.Mvc.Internal.ActionMethodExecutor.SyncObjectResultExecutor.Execute(IActionResultTypeMapper mapper, ObjectMethodExecutor executor, Object controller, Object[] arguments)
   at Microsoft.AspNetCore.Mvc.Internal.ControllerActionInvoker.InvokeActionMethodAsync()
   at Microsoft.AspNetCore.Mvc.Internal.ControllerActionInvoker.InvokeNextActionFilterAsync()
   at Microsoft.AspNetCore.Mvc.Internal.ControllerActionInvoker.Rethrow(ActionExecutedContext context)
   at Microsoft.AspNetCore.Mvc.Internal.ControllerActionInvoker.Next(State& next, Scope& scope, Object& state, Boolean& isCompleted)
   at Microsoft.AspNetCore.Mvc.Internal.ControllerActionInvoker.InvokeInnerFilterAsync()
   at Microsoft.AspNetCore.Mvc.Internal.ResourceInvoker.InvokeNextResourceFilter()
   at Microsoft.AspNetCore.Mvc.Internal.ResourceInvoker.Rethrow(ResourceExecutedContext context)
   at Microsoft.AspNetCore.Mvc.Internal.ResourceInvoker.Next(State& next, Scope& scope, Object& state, Boolean& isCompleted)
   at Microsoft.AspNetCore.Mvc.Internal.ResourceInvoker.InvokeFilterPipelineAsync()
   at Microsoft.AspNetCore.Mvc.Internal.ResourceInvoker.InvokeAsync()
   at Microsoft.AspNetCore.Routing.EndpointMiddleware.Invoke(HttpContext httpContext)
   at Microsoft.AspNetCore.Routing.EndpointRoutingMiddleware.Invoke(HttpContext httpContext)
   at Microsoft.AspNetCore.Authentication.AuthenticationMiddleware.Invoke(HttpContext context)
   at Microsoft.AspNetCore.Diagnostics.ExceptionHandlerMiddleware.Invoke(HttpContext context)
2019-04-11 16:24:01,845 [6]  INFO Microsoft.AspNetCore.Mvc.Internal.ControllerActionInvoker [(null)] - Executed action method Facturador.Log.API.Controllers.LogController.Write (Facturador.Log.API), returned result Microsoft.AspNetCore.Mvc.OkObjectResult in 2070.0663ms. [2]
2019-04-11 16:24:01,859 [6]  INFO Microsoft.AspNetCore.Mvc.Infrastructure.ObjectResultExecutor [(null)] - Executing ObjectResult, writing value of type 'Facturador.Transversal.Common.Entities.StatusResponse`1[[System.Object, System.Private.CoreLib, Version=4.0.0.0, Culture=neutral, PublicKeyToken=7cec85d7bea7798e]]'. [1]
2019-04-11 16:24:01,890 [6]  INFO Microsoft.AspNetCore.Mvc.Internal.ControllerActionInvoker [(null)] - Executed action Facturador.Log.API.Controllers.LogController.Write (Facturador.Log.API) in 2331.6633ms [2]
2019-04-11 16:24:01,895 [6]  INFO Microsoft.AspNetCore.Routing.EndpointMiddleware [(null)] - Executed endpoint 'Facturador.Log.API.Controllers.LogController.Write (Facturador.Log.API)' [1]
2019-04-11 16:24:01,903 [6]  INFO Microsoft.AspNetCore.Hosting.Internal.WebHost [(null)] - Request finished in 2435.2987ms 200 application/json; charset=utf-8 [2]
2019-04-11 16:27:07,466 [1]  INFO Microsoft.AspNetCore.DataProtection.KeyManagement.XmlKeyManager [(null)] - User profile is available. Using 'C:\Users\jpvargas\AppData\Local\ASP.NET\DataProtection-Keys' as key repository and Windows DPAPI to encrypt keys at rest.
2019-04-11 16:27:09,169 [6]  INFO Microsoft.AspNetCore.Hosting.Internal.WebHost [(null)] - Request starting HTTP/1.1 GET http://localhost:63899/api/log   [1]
2019-04-11 16:27:09,187 [6]  WARN Microsoft.AspNetCore.HttpsPolicy.HttpsRedirectionMiddleware [(null)] - Failed to determine the https port for redirect. [3]
2019-04-11 16:27:11,944 [6]  INFO Microsoft.AspNetCore.Hosting.Internal.WebHost [(null)] - Request finished in 2745.7624ms 404  [2]
2019-04-11 16:28:04,011 [12]  INFO Microsoft.AspNetCore.Hosting.Internal.WebHost [(null)] - Request starting HTTP/1.1 POST http://localhost:63899/api/log/write application/json; charset=utf-8 2400 [1]
2019-04-11 16:28:04,016 [12]  INFO Microsoft.AspNetCore.Routing.EndpointMiddleware [(null)] - Executing endpoint 'Facturador.Log.API.Controllers.LogController.Write (Facturador.Log.API)'
2019-04-11 16:28:04,058 [12]  INFO Microsoft.AspNetCore.Mvc.Internal.ControllerActionInvoker [(null)] - Route matched with {action = "Write", controller = "Log"}. Executing action Facturador.Log.API.Controllers.LogController.Write (Facturador.Log.API) [1]
2019-04-11 16:28:04,164 [12]  INFO Microsoft.AspNetCore.Mvc.Internal.ControllerActionInvoker [(null)] - Executing action method Facturador.Log.API.Controllers.LogController.Write (Facturador.Log.API) with arguments (Facturador.Transversal.Common.Entities.LogRequest) - Validation state: Valid [1]
2019-04-11 16:28:06,998 [12] ERROR Facturador.Log.Domain.Loging.LogDomain [(null)] - System.FormatException: Input string was not in a correct format.
   at System.Number.StringToNumber(ReadOnlySpan`1 str, NumberStyles options, NumberBuffer& number, NumberFormatInfo info, Boolean parseDecimal)
   at System.Number.ParseInt32(ReadOnlySpan`1 s, NumberStyles style, NumberFormatInfo info)
   at System.Int32.Parse(String s)
   at Facturador.Security.Domain.Services.AccountDomain.Login(User model) in C:\JP\facturador-backend\Facturador.Security.Domain.Services\AccountDomain.cs:line 77
   at Facturador.Security.API.Controllers.AccountController.Login(User model) in C:\JP\facturador-backend\Facturador.Security.API\Controllers\AccountController.cs:line 24
   at lambda_method(Closure , Object )
   at Microsoft.Extensions.Internal.ObjectMethodExecutorAwaitable.Awaiter.GetResult()
   at Microsoft.AspNetCore.Mvc.Internal.ActionMethodExecutor.AwaitableObjectResultExecutor.Execute(IActionResultTypeMapper mapper, ObjectMethodExecutor executor, Object controller, Object[] arguments)
   at System.Threading.Tasks.ValueTask`1.get_Result()
   at Microsoft.AspNetCore.Mvc.Internal.ControllerActionInvoker.InvokeActionMethodAsync()
   at Microsoft.AspNetCore.Mvc.Internal.ControllerActionInvoker.InvokeNextActionFilterAsync()
   at Microsoft.AspNetCore.Mvc.Internal.ControllerActionInvoker.Rethrow(ActionExecutedContext context)
   at Microsoft.AspNetCore.Mvc.Internal.ControllerActionInvoker.Next(State& next, Scope& scope, Object& state, Boolean& isCompleted)
   at Microsoft.AspNetCore.Mvc.Internal.ControllerActionInvoker.InvokeInnerFilterAsync()
   at Microsoft.AspNetCore.Mvc.Internal.ResourceInvoker.InvokeNextResourceFilter()
   at Microsoft.AspNetCore.Mvc.Internal.ResourceInvoker.Rethrow(ResourceExecutedContext context)
   at Microsoft.AspNetCore.Mvc.Internal.ResourceInvoker.Next(State& next, Scope& scope, Object& state, Boolean& isCompleted)
   at Microsoft.AspNetCore.Mvc.Internal.ResourceInvoker.InvokeFilterPipelineAsync()
   at Microsoft.AspNetCore.Mvc.Internal.ResourceInvoker.InvokeAsync()
   at Microsoft.AspNetCore.Routing.EndpointMiddleware.Invoke(HttpContext httpContext)
   at Microsoft.AspNetCore.Routing.EndpointRoutingMiddleware.Invoke(HttpContext httpContext)
   at Microsoft.AspNetCore.Diagnostics.ExceptionHandlerMiddleware.Invoke(HttpContext context)
2019-04-11 16:28:07,004 [12]  INFO Microsoft.AspNetCore.Mvc.Internal.ControllerActionInvoker [(null)] - Executed action method Facturador.Log.API.Controllers.LogController.Write (Facturador.Log.API), returned result Microsoft.AspNetCore.Mvc.OkObjectResult in 2835.1976ms. [2]
2019-04-11 16:28:07,017 [12]  INFO Microsoft.AspNetCore.Mvc.Infrastructure.ObjectResultExecutor [(null)] - Executing ObjectResult, writing value of type 'Facturador.Transversal.Common.Entities.StatusResponse`1[[System.Object, System.Private.CoreLib, Version=4.0.0.0, Culture=neutral, PublicKeyToken=7cec85d7bea7798e]]'. [1]
2019-04-11 16:28:07,057 [12]  INFO Microsoft.AspNetCore.Mvc.Internal.ControllerActionInvoker [(null)] - Executed action Facturador.Log.API.Controllers.LogController.Write (Facturador.Log.API) in 2987.7802ms [2]
2019-04-11 16:28:07,061 [12]  INFO Microsoft.AspNetCore.Routing.EndpointMiddleware [(null)] - Executed endpoint 'Facturador.Log.API.Controllers.LogController.Write (Facturador.Log.API)' [1]
2019-04-11 16:28:07,066 [12]  INFO Microsoft.AspNetCore.Hosting.Internal.WebHost [(null)] - Request finished in 3055.6137ms 200 application/json; charset=utf-8 [2]
2019-04-11 16:29:21,418 [13]  INFO Microsoft.AspNetCore.Hosting.Internal.WebHost [(null)] - Request starting HTTP/1.1 POST http://localhost:63899/api/log/write application/json; charset=utf-8 2400 [1]
2019-04-11 16:29:21,429 [13]  INFO Microsoft.AspNetCore.Routing.EndpointMiddleware [(null)] - Executing endpoint 'Facturador.Log.API.Controllers.LogController.Write (Facturador.Log.API)'
2019-04-11 16:29:21,446 [13]  INFO Microsoft.AspNetCore.Mvc.Internal.ControllerActionInvoker [(null)] - Route matched with {action = "Write", controller = "Log"}. Executing action Facturador.Log.API.Controllers.LogController.Write (Facturador.Log.API) [1]
2019-04-11 16:29:21,453 [13]  INFO Microsoft.AspNetCore.Mvc.Internal.ControllerActionInvoker [(null)] - Executing action method Facturador.Log.API.Controllers.LogController.Write (Facturador.Log.API) with arguments (Facturador.Transversal.Common.Entities.LogRequest) - Validation state: Valid [1]
2019-04-11 16:30:38,101 [13] ERROR Facturador.Log.Domain.Loging.LogDomain [(null)] - System.FormatException: Input string was not in a correct format.
   at System.Number.StringToNumber(ReadOnlySpan`1 str, NumberStyles options, NumberBuffer& number, NumberFormatInfo info, Boolean parseDecimal)
   at System.Number.ParseInt32(ReadOnlySpan`1 s, NumberStyles style, NumberFormatInfo info)
   at System.Int32.Parse(String s)
   at Facturador.Security.Domain.Services.AccountDomain.Login(User model) in C:\JP\facturador-backend\Facturador.Security.Domain.Services\AccountDomain.cs:line 77
   at Facturador.Security.API.Controllers.AccountController.Login(User model) in C:\JP\facturador-backend\Facturador.Security.API\Controllers\AccountController.cs:line 24
   at lambda_method(Closure , Object )
   at Microsoft.Extensions.Internal.ObjectMethodExecutorAwaitable.Awaiter.GetResult()
   at Microsoft.AspNetCore.Mvc.Internal.ActionMethodExecutor.AwaitableObjectResultExecutor.Execute(IActionResultTypeMapper mapper, ObjectMethodExecutor executor, Object controller, Object[] arguments)
   at System.Threading.Tasks.ValueTask`1.get_Result()
   at Microsoft.AspNetCore.Mvc.Internal.ControllerActionInvoker.InvokeActionMethodAsync()
   at Microsoft.AspNetCore.Mvc.Internal.ControllerActionInvoker.InvokeNextActionFilterAsync()
   at Microsoft.AspNetCore.Mvc.Internal.ControllerActionInvoker.Rethrow(ActionExecutedContext context)
   at Microsoft.AspNetCore.Mvc.Internal.ControllerActionInvoker.Next(State& next, Scope& scope, Object& state, Boolean& isCompleted)
   at Microsoft.AspNetCore.Mvc.Internal.ControllerActionInvoker.InvokeInnerFilterAsync()
   at Microsoft.AspNetCore.Mvc.Internal.ResourceInvoker.InvokeNextResourceFilter()
   at Microsoft.AspNetCore.Mvc.Internal.ResourceInvoker.Rethrow(ResourceExecutedContext context)
   at Microsoft.AspNetCore.Mvc.Internal.ResourceInvoker.Next(State& next, Scope& scope, Object& state, Boolean& isCompleted)
   at Microsoft.AspNetCore.Mvc.Internal.ResourceInvoker.InvokeFilterPipelineAsync()
   at Microsoft.AspNetCore.Mvc.Internal.ResourceInvoker.InvokeAsync()
   at Microsoft.AspNetCore.Routing.EndpointMiddleware.Invoke(HttpContext httpContext)
   at Microsoft.AspNetCore.Routing.EndpointRoutingMiddleware.Invoke(HttpContext httpContext)
   at Microsoft.AspNetCore.Diagnostics.ExceptionHandlerMiddleware.Invoke(HttpContext context)
2019-04-11 16:30:38,129 [13]  INFO Microsoft.AspNetCore.Mvc.Internal.ControllerActionInvoker [(null)] - Executed action method Facturador.Log.API.Controllers.LogController.Write (Facturador.Log.API), returned result Microsoft.AspNetCore.Mvc.OkObjectResult in 76666.5982ms. [2]
2019-04-11 16:30:38,156 [13]  INFO Microsoft.AspNetCore.Mvc.Infrastructure.ObjectResultExecutor [(null)] - Executing ObjectResult, writing value of type 'Facturador.Transversal.Common.Entities.StatusResponse`1[[System.Object, System.Private.CoreLib, Version=4.0.0.0, Culture=neutral, PublicKeyToken=7cec85d7bea7798e]]'. [1]
2019-04-11 16:30:38,163 [13]  INFO Microsoft.AspNetCore.Mvc.Internal.ControllerActionInvoker [(null)] - Executed action Facturador.Log.API.Controllers.LogController.Write (Facturador.Log.API) in 76709.5795ms [2]
2019-04-11 16:30:38,182 [13]  INFO Microsoft.AspNetCore.Routing.EndpointMiddleware [(null)] - Executed endpoint 'Facturador.Log.API.Controllers.LogController.Write (Facturador.Log.API)' [1]
2019-04-11 16:30:38,193 [13]  INFO Microsoft.AspNetCore.Hosting.Internal.WebHost [(null)] - Request finished in 76767.3568ms 200 application/json; charset=utf-8 [2]
2019-04-11 16:31:16,530 [1]  INFO Microsoft.AspNetCore.DataProtection.KeyManagement.XmlKeyManager [(null)] - User profile is available. Using 'C:\Users\jpvargas\AppData\Local\ASP.NET\DataProtection-Keys' as key repository and Windows DPAPI to encrypt keys at rest.
2019-04-11 16:31:18,052 [6]  INFO Microsoft.AspNetCore.Hosting.Internal.WebHost [(null)] - Request starting HTTP/1.1 GET http://localhost:63899/api/log   [1]
2019-04-11 16:31:18,067 [6]  WARN Microsoft.AspNetCore.HttpsPolicy.HttpsRedirectionMiddleware [(null)] - Failed to determine the https port for redirect. [3]
2019-04-11 16:31:20,236 [6]  INFO Microsoft.AspNetCore.Hosting.Internal.WebHost [(null)] - Request finished in 2176.6008ms 404  [2]
2019-04-11 16:31:48,436 [6]  INFO Microsoft.AspNetCore.Hosting.Internal.WebHost [(null)] - Request starting HTTP/1.1 POST http://localhost:63899/api/log/write application/json; charset=utf-8 2400 [1]
2019-04-11 16:31:48,444 [6]  INFO Microsoft.AspNetCore.Routing.EndpointMiddleware [(null)] - Executing endpoint 'Facturador.Log.API.Controllers.LogController.Write (Facturador.Log.API)'
2019-04-11 16:31:48,565 [6]  INFO Microsoft.AspNetCore.Mvc.Internal.ControllerActionInvoker [(null)] - Route matched with {action = "Write", controller = "Log"}. Executing action Facturador.Log.API.Controllers.LogController.Write (Facturador.Log.API) [1]
2019-04-11 16:31:48,788 [6]  INFO Microsoft.AspNetCore.Mvc.Internal.ControllerActionInvoker [(null)] - Executing action method Facturador.Log.API.Controllers.LogController.Write (Facturador.Log.API) with arguments (Facturador.Transversal.Common.Entities.LogRequest) - Validation state: Valid [1]
2019-04-11 16:31:59,506 [6] ERROR Facturador.Log.Domain.Loging.LogDomain [(null)] - System.FormatException: Input string was not in a correct format.
   at System.Number.StringToNumber(ReadOnlySpan`1 str, NumberStyles options, NumberBuffer& number, NumberFormatInfo info, Boolean parseDecimal)
   at System.Number.ParseInt32(ReadOnlySpan`1 s, NumberStyles style, NumberFormatInfo info)
   at System.Int32.Parse(String s)
   at Facturador.Security.Domain.Services.AccountDomain.Login(User model) in C:\JP\facturador-backend\Facturador.Security.Domain.Services\AccountDomain.cs:line 77
   at Facturador.Security.API.Controllers.AccountController.Login(User model) in C:\JP\facturador-backend\Facturador.Security.API\Controllers\AccountController.cs:line 24
   at lambda_method(Closure , Object )
   at Microsoft.Extensions.Internal.ObjectMethodExecutorAwaitable.Awaiter.GetResult()
   at Microsoft.AspNetCore.Mvc.Internal.ActionMethodExecutor.AwaitableObjectResultExecutor.Execute(IActionResultTypeMapper mapper, ObjectMethodExecutor executor, Object controller, Object[] arguments)
   at System.Threading.Tasks.ValueTask`1.get_Result()
   at Microsoft.AspNetCore.Mvc.Internal.ControllerActionInvoker.InvokeActionMethodAsync()
   at Microsoft.AspNetCore.Mvc.Internal.ControllerActionInvoker.InvokeNextActionFilterAsync()
   at Microsoft.AspNetCore.Mvc.Internal.ControllerActionInvoker.Rethrow(ActionExecutedContext context)
   at Microsoft.AspNetCore.Mvc.Internal.ControllerActionInvoker.Next(State& next, Scope& scope, Object& state, Boolean& isCompleted)
   at Microsoft.AspNetCore.Mvc.Internal.ControllerActionInvoker.InvokeInnerFilterAsync()
   at Microsoft.AspNetCore.Mvc.Internal.ResourceInvoker.InvokeNextResourceFilter()
   at Microsoft.AspNetCore.Mvc.Internal.ResourceInvoker.Rethrow(ResourceExecutedContext context)
   at Microsoft.AspNetCore.Mvc.Internal.ResourceInvoker.Next(State& next, Scope& scope, Object& state, Boolean& isCompleted)
   at Microsoft.AspNetCore.Mvc.Internal.ResourceInvoker.InvokeFilterPipelineAsync()
   at Microsoft.AspNetCore.Mvc.Internal.ResourceInvoker.InvokeAsync()
   at Microsoft.AspNetCore.Routing.EndpointMiddleware.Invoke(HttpContext httpContext)
   at Microsoft.AspNetCore.Routing.EndpointRoutingMiddleware.Invoke(HttpContext httpContext)
   at Microsoft.AspNetCore.Diagnostics.ExceptionHandlerMiddleware.Invoke(HttpContext context)
2019-04-11 16:31:59,519 [6]  INFO Microsoft.AspNetCore.Mvc.Internal.ControllerActionInvoker [(null)] - Executed action method Facturador.Log.API.Controllers.LogController.Write (Facturador.Log.API), returned result Microsoft.AspNetCore.Mvc.OkObjectResult in 10720.9765ms. [2]
2019-04-11 16:31:59,550 [6]  INFO Microsoft.AspNetCore.Mvc.Infrastructure.ObjectResultExecutor [(null)] - Executing ObjectResult, writing value of type 'Facturador.Transversal.Common.Entities.StatusResponse`1[[System.Object, System.Private.CoreLib, Version=4.0.0.0, Culture=neutral, PublicKeyToken=7cec85d7bea7798e]]'. [1]
2019-04-11 16:31:59,600 [6]  INFO Microsoft.AspNetCore.Mvc.Internal.ControllerActionInvoker [(null)] - Executed action Facturador.Log.API.Controllers.LogController.Write (Facturador.Log.API) in 11014.6899ms [2]
2019-04-11 16:31:59,617 [6]  INFO Microsoft.AspNetCore.Routing.EndpointMiddleware [(null)] - Executed endpoint 'Facturador.Log.API.Controllers.LogController.Write (Facturador.Log.API)' [1]
2019-04-11 16:31:59,631 [6]  INFO Microsoft.AspNetCore.Hosting.Internal.WebHost [(null)] - Request finished in 11189.9363ms 200 application/json; charset=utf-8 [2]
2019-04-11 16:32:22,284 [15]  INFO Microsoft.AspNetCore.Hosting.Internal.WebHost [(null)] - Request starting HTTP/1.1 POST http://localhost:63899/api/log/write application/json; charset=utf-8 2400 [1]
2019-04-11 16:32:22,288 [15]  INFO Microsoft.AspNetCore.Routing.EndpointMiddleware [(null)] - Executing endpoint 'Facturador.Log.API.Controllers.LogController.Write (Facturador.Log.API)'
2019-04-11 16:32:22,315 [15]  INFO Microsoft.AspNetCore.Mvc.Internal.ControllerActionInvoker [(null)] - Route matched with {action = "Write", controller = "Log"}. Executing action Facturador.Log.API.Controllers.LogController.Write (Facturador.Log.API) [1]
2019-04-11 16:32:22,320 [15]  INFO Microsoft.AspNetCore.Mvc.Internal.ControllerActionInvoker [(null)] - Executing action method Facturador.Log.API.Controllers.LogController.Write (Facturador.Log.API) with arguments (Facturador.Transversal.Common.Entities.LogRequest) - Validation state: Valid [1]
2019-04-11 16:32:25,767 [15] ERROR Facturador.Log.Domain.Loging.LogDomain [(null)] - System.FormatException: Input string was not in a correct format.
   at System.Number.StringToNumber(ReadOnlySpan`1 str, NumberStyles options, NumberBuffer& number, NumberFormatInfo info, Boolean parseDecimal)
   at System.Number.ParseInt32(ReadOnlySpan`1 s, NumberStyles style, NumberFormatInfo info)
   at System.Int32.Parse(String s)
   at Facturador.Security.Domain.Services.AccountDomain.Login(User model) in C:\JP\facturador-backend\Facturador.Security.Domain.Services\AccountDomain.cs:line 77
   at Facturador.Security.API.Controllers.AccountController.Login(User model) in C:\JP\facturador-backend\Facturador.Security.API\Controllers\AccountController.cs:line 24
   at lambda_method(Closure , Object )
   at Microsoft.Extensions.Internal.ObjectMethodExecutorAwaitable.Awaiter.GetResult()
   at Microsoft.AspNetCore.Mvc.Internal.ActionMethodExecutor.AwaitableObjectResultExecutor.Execute(IActionResultTypeMapper mapper, ObjectMethodExecutor executor, Object controller, Object[] arguments)
   at System.Threading.Tasks.ValueTask`1.get_Result()
   at Microsoft.AspNetCore.Mvc.Internal.ControllerActionInvoker.InvokeActionMethodAsync()
   at Microsoft.AspNetCore.Mvc.Internal.ControllerActionInvoker.InvokeNextActionFilterAsync()
   at Microsoft.AspNetCore.Mvc.Internal.ControllerActionInvoker.Rethrow(ActionExecutedContext context)
   at Microsoft.AspNetCore.Mvc.Internal.ControllerActionInvoker.Next(State& next, Scope& scope, Object& state, Boolean& isCompleted)
   at Microsoft.AspNetCore.Mvc.Internal.ControllerActionInvoker.InvokeInnerFilterAsync()
   at Microsoft.AspNetCore.Mvc.Internal.ResourceInvoker.InvokeNextResourceFilter()
   at Microsoft.AspNetCore.Mvc.Internal.ResourceInvoker.Rethrow(ResourceExecutedContext context)
   at Microsoft.AspNetCore.Mvc.Internal.ResourceInvoker.Next(State& next, Scope& scope, Object& state, Boolean& isCompleted)
   at Microsoft.AspNetCore.Mvc.Internal.ResourceInvoker.InvokeFilterPipelineAsync()
   at Microsoft.AspNetCore.Mvc.Internal.ResourceInvoker.InvokeAsync()
   at Microsoft.AspNetCore.Routing.EndpointMiddleware.Invoke(HttpContext httpContext)
   at Microsoft.AspNetCore.Routing.EndpointRoutingMiddleware.Invoke(HttpContext httpContext)
   at Microsoft.AspNetCore.Diagnostics.ExceptionHandlerMiddleware.Invoke(HttpContext context)
2019-04-11 16:32:25,771 [15]  INFO Microsoft.AspNetCore.Mvc.Internal.ControllerActionInvoker [(null)] - Executed action method Facturador.Log.API.Controllers.LogController.Write (Facturador.Log.API), returned result Microsoft.AspNetCore.Mvc.OkObjectResult in 3447.8174ms. [2]
2019-04-11 16:32:25,775 [15]  INFO Microsoft.AspNetCore.Mvc.Infrastructure.ObjectResultExecutor [(null)] - Executing ObjectResult, writing value of type 'Facturador.Transversal.Common.Entities.StatusResponse`1[[System.Object, System.Private.CoreLib, Version=4.0.0.0, Culture=neutral, PublicKeyToken=7cec85d7bea7798e]]'. [1]
2019-04-11 16:32:25,781 [15]  INFO Microsoft.AspNetCore.Mvc.Internal.ControllerActionInvoker [(null)] - Executed action Facturador.Log.API.Controllers.LogController.Write (Facturador.Log.API) in 3462.645ms [2]
2019-04-11 16:32:25,798 [15]  INFO Microsoft.AspNetCore.Routing.EndpointMiddleware [(null)] - Executed endpoint 'Facturador.Log.API.Controllers.LogController.Write (Facturador.Log.API)' [1]
2019-04-11 16:32:25,804 [15]  INFO Microsoft.AspNetCore.Hosting.Internal.WebHost [(null)] - Request finished in 3519.6568ms 200 application/json; charset=utf-8 [2]
2019-04-11 16:32:57,208 [6]  INFO Microsoft.AspNetCore.Hosting.Internal.WebHost [(null)] - Request starting HTTP/1.1 POST http://localhost:63899/api/log/write application/json; charset=utf-8 2400 [1]
2019-04-11 16:32:57,222 [6]  INFO Microsoft.AspNetCore.Routing.EndpointMiddleware [(null)] - Executing endpoint 'Facturador.Log.API.Controllers.LogController.Write (Facturador.Log.API)'
2019-04-11 16:32:57,246 [6]  INFO Microsoft.AspNetCore.Mvc.Internal.ControllerActionInvoker [(null)] - Route matched with {action = "Write", controller = "Log"}. Executing action Facturador.Log.API.Controllers.LogController.Write (Facturador.Log.API) [1]
2019-04-11 16:32:57,251 [6]  INFO Microsoft.AspNetCore.Mvc.Internal.ControllerActionInvoker [(null)] - Executing action method Facturador.Log.API.Controllers.LogController.Write (Facturador.Log.API) with arguments (Facturador.Transversal.Common.Entities.LogRequest) - Validation state: Valid [1]
2019-04-11 16:33:03,686 [6] ERROR Facturador.Log.Domain.Loging.LogDomain [(null)] - System.FormatException: Input string was not in a correct format.
   at System.Number.StringToNumber(ReadOnlySpan`1 str, NumberStyles options, NumberBuffer& number, NumberFormatInfo info, Boolean parseDecimal)
   at System.Number.ParseInt32(ReadOnlySpan`1 s, NumberStyles style, NumberFormatInfo info)
   at System.Int32.Parse(String s)
   at Facturador.Security.Domain.Services.AccountDomain.Login(User model) in C:\JP\facturador-backend\Facturador.Security.Domain.Services\AccountDomain.cs:line 77
   at Facturador.Security.API.Controllers.AccountController.Login(User model) in C:\JP\facturador-backend\Facturador.Security.API\Controllers\AccountController.cs:line 24
   at lambda_method(Closure , Object )
   at Microsoft.Extensions.Internal.ObjectMethodExecutorAwaitable.Awaiter.GetResult()
   at Microsoft.AspNetCore.Mvc.Internal.ActionMethodExecutor.AwaitableObjectResultExecutor.Execute(IActionResultTypeMapper mapper, ObjectMethodExecutor executor, Object controller, Object[] arguments)
   at System.Threading.Tasks.ValueTask`1.get_Result()
   at Microsoft.AspNetCore.Mvc.Internal.ControllerActionInvoker.InvokeActionMethodAsync()
   at Microsoft.AspNetCore.Mvc.Internal.ControllerActionInvoker.InvokeNextActionFilterAsync()
   at Microsoft.AspNetCore.Mvc.Internal.ControllerActionInvoker.Rethrow(ActionExecutedContext context)
   at Microsoft.AspNetCore.Mvc.Internal.ControllerActionInvoker.Next(State& next, Scope& scope, Object& state, Boolean& isCompleted)
   at Microsoft.AspNetCore.Mvc.Internal.ControllerActionInvoker.InvokeInnerFilterAsync()
   at Microsoft.AspNetCore.Mvc.Internal.ResourceInvoker.InvokeNextResourceFilter()
   at Microsoft.AspNetCore.Mvc.Internal.ResourceInvoker.Rethrow(ResourceExecutedContext context)
   at Microsoft.AspNetCore.Mvc.Internal.ResourceInvoker.Next(State& next, Scope& scope, Object& state, Boolean& isCompleted)
   at Microsoft.AspNetCore.Mvc.Internal.ResourceInvoker.InvokeFilterPipelineAsync()
   at Microsoft.AspNetCore.Mvc.Internal.ResourceInvoker.InvokeAsync()
   at Microsoft.AspNetCore.Routing.EndpointMiddleware.Invoke(HttpContext httpContext)
   at Microsoft.AspNetCore.Routing.EndpointRoutingMiddleware.Invoke(HttpContext httpContext)
   at Microsoft.AspNetCore.Diagnostics.ExceptionHandlerMiddleware.Invoke(HttpContext context)
2019-04-11 16:33:03,690 [6]  INFO Microsoft.AspNetCore.Mvc.Internal.ControllerActionInvoker [(null)] - Executed action method Facturador.Log.API.Controllers.LogController.Write (Facturador.Log.API), returned result Microsoft.AspNetCore.Mvc.OkObjectResult in 6434.8745ms. [2]
2019-04-11 16:33:03,696 [6]  INFO Microsoft.AspNetCore.Mvc.Infrastructure.ObjectResultExecutor [(null)] - Executing ObjectResult, writing value of type 'Facturador.Transversal.Common.Entities.StatusResponse`1[[System.Object, System.Private.CoreLib, Version=4.0.0.0, Culture=neutral, PublicKeyToken=7cec85d7bea7798e]]'. [1]
2019-04-11 16:33:03,719 [6]  INFO Microsoft.AspNetCore.Mvc.Internal.ControllerActionInvoker [(null)] - Executed action Facturador.Log.API.Controllers.LogController.Write (Facturador.Log.API) in 6449.6033ms [2]
2019-04-11 16:33:03,723 [6]  INFO Microsoft.AspNetCore.Routing.EndpointMiddleware [(null)] - Executed endpoint 'Facturador.Log.API.Controllers.LogController.Write (Facturador.Log.API)' [1]
2019-04-11 16:33:03,728 [6]  INFO Microsoft.AspNetCore.Hosting.Internal.WebHost [(null)] - Request finished in 6520.4258ms 200 application/json; charset=utf-8 [2]
2019-04-11 16:34:14,244 [6]  INFO Microsoft.AspNetCore.Hosting.Internal.WebHost [(null)] - Request starting HTTP/1.1 POST http://localhost:63899/api/log/write application/json; charset=utf-8 2400 [1]
2019-04-11 16:34:14,248 [6]  INFO Microsoft.AspNetCore.Routing.EndpointMiddleware [(null)] - Executing endpoint 'Facturador.Log.API.Controllers.LogController.Write (Facturador.Log.API)'
2019-04-11 16:34:14,276 [6]  INFO Microsoft.AspNetCore.Mvc.Internal.ControllerActionInvoker [(null)] - Route matched with {action = "Write", controller = "Log"}. Executing action Facturador.Log.API.Controllers.LogController.Write (Facturador.Log.API) [1]
2019-04-11 16:34:14,290 [6]  INFO Microsoft.AspNetCore.Mvc.Internal.ControllerActionInvoker [(null)] - Executing action method Facturador.Log.API.Controllers.LogController.Write (Facturador.Log.API) with arguments (Facturador.Transversal.Common.Entities.LogRequest) - Validation state: Valid [1]
2019-04-11 16:34:22,237 [6] ERROR Facturador.Log.Domain.Loging.LogDomain [(null)] - System.FormatException: Input string was not in a correct format.
   at System.Number.StringToNumber(ReadOnlySpan`1 str, NumberStyles options, NumberBuffer& number, NumberFormatInfo info, Boolean parseDecimal)
   at System.Number.ParseInt32(ReadOnlySpan`1 s, NumberStyles style, NumberFormatInfo info)
   at System.Int32.Parse(String s)
   at Facturador.Security.Domain.Services.AccountDomain.Login(User model) in C:\JP\facturador-backend\Facturador.Security.Domain.Services\AccountDomain.cs:line 77
   at Facturador.Security.API.Controllers.AccountController.Login(User model) in C:\JP\facturador-backend\Facturador.Security.API\Controllers\AccountController.cs:line 24
   at lambda_method(Closure , Object )
   at Microsoft.Extensions.Internal.ObjectMethodExecutorAwaitable.Awaiter.GetResult()
   at Microsoft.AspNetCore.Mvc.Internal.ActionMethodExecutor.AwaitableObjectResultExecutor.Execute(IActionResultTypeMapper mapper, ObjectMethodExecutor executor, Object controller, Object[] arguments)
   at System.Threading.Tasks.ValueTask`1.get_Result()
   at Microsoft.AspNetCore.Mvc.Internal.ControllerActionInvoker.InvokeActionMethodAsync()
   at Microsoft.AspNetCore.Mvc.Internal.ControllerActionInvoker.InvokeNextActionFilterAsync()
   at Microsoft.AspNetCore.Mvc.Internal.ControllerActionInvoker.Rethrow(ActionExecutedContext context)
   at Microsoft.AspNetCore.Mvc.Internal.ControllerActionInvoker.Next(State& next, Scope& scope, Object& state, Boolean& isCompleted)
   at Microsoft.AspNetCore.Mvc.Internal.ControllerActionInvoker.InvokeInnerFilterAsync()
   at Microsoft.AspNetCore.Mvc.Internal.ResourceInvoker.InvokeNextResourceFilter()
   at Microsoft.AspNetCore.Mvc.Internal.ResourceInvoker.Rethrow(ResourceExecutedContext context)
   at Microsoft.AspNetCore.Mvc.Internal.ResourceInvoker.Next(State& next, Scope& scope, Object& state, Boolean& isCompleted)
   at Microsoft.AspNetCore.Mvc.Internal.ResourceInvoker.InvokeFilterPipelineAsync()
   at Microsoft.AspNetCore.Mvc.Internal.ResourceInvoker.InvokeAsync()
   at Microsoft.AspNetCore.Routing.EndpointMiddleware.Invoke(HttpContext httpContext)
   at Microsoft.AspNetCore.Routing.EndpointRoutingMiddleware.Invoke(HttpContext httpContext)
   at Microsoft.AspNetCore.Diagnostics.ExceptionHandlerMiddleware.Invoke(HttpContext context)
2019-04-11 16:34:22,242 [6]  INFO Microsoft.AspNetCore.Mvc.Internal.ControllerActionInvoker [(null)] - Executed action method Facturador.Log.API.Controllers.LogController.Write (Facturador.Log.API), returned result Microsoft.AspNetCore.Mvc.OkObjectResult in 7938.3862ms. [2]
2019-04-11 16:34:22,250 [6]  INFO Microsoft.AspNetCore.Mvc.Infrastructure.ObjectResultExecutor [(null)] - Executing ObjectResult, writing value of type 'Facturador.Transversal.Common.Entities.StatusResponse`1[[System.Object, System.Private.CoreLib, Version=4.0.0.0, Culture=neutral, PublicKeyToken=7cec85d7bea7798e]]'. [1]
2019-04-11 16:34:22,268 [6]  INFO Microsoft.AspNetCore.Mvc.Internal.ControllerActionInvoker [(null)] - Executed action Facturador.Log.API.Controllers.LogController.Write (Facturador.Log.API) in 7971.8223ms [2]
2019-04-11 16:34:22,272 [6]  INFO Microsoft.AspNetCore.Routing.EndpointMiddleware [(null)] - Executed endpoint 'Facturador.Log.API.Controllers.LogController.Write (Facturador.Log.API)' [1]
2019-04-11 16:34:22,277 [6]  INFO Microsoft.AspNetCore.Hosting.Internal.WebHost [(null)] - Request finished in 8039.4074ms 200 application/json; charset=utf-8 [2]
2019-04-11 16:34:56,478 [21]  INFO Microsoft.AspNetCore.Hosting.Internal.WebHost [(null)] - Request starting HTTP/1.1 POST http://localhost:63899/api/log/write application/json; charset=utf-8 2400 [1]
2019-04-11 16:34:56,483 [21]  INFO Microsoft.AspNetCore.Routing.EndpointMiddleware [(null)] - Executing endpoint 'Facturador.Log.API.Controllers.LogController.Write (Facturador.Log.API)'
2019-04-11 16:34:56,500 [21]  INFO Microsoft.AspNetCore.Mvc.Internal.ControllerActionInvoker [(null)] - Route matched with {action = "Write", controller = "Log"}. Executing action Facturador.Log.API.Controllers.LogController.Write (Facturador.Log.API) [1]
2019-04-11 16:34:56,507 [21]  INFO Microsoft.AspNetCore.Mvc.Internal.ControllerActionInvoker [(null)] - Executing action method Facturador.Log.API.Controllers.LogController.Write (Facturador.Log.API) with arguments (Facturador.Transversal.Common.Entities.LogRequest) - Validation state: Valid [1]
2019-04-11 16:35:03,295 [21] ERROR Facturador.Log.Domain.Loging.LogDomain [(null)] - System.FormatException: Input string was not in a correct format.
   at System.Number.StringToNumber(ReadOnlySpan`1 str, NumberStyles options, NumberBuffer& number, NumberFormatInfo info, Boolean parseDecimal)
   at System.Number.ParseInt32(ReadOnlySpan`1 s, NumberStyles style, NumberFormatInfo info)
   at System.Int32.Parse(String s)
   at Facturador.Security.Domain.Services.AccountDomain.Login(User model) in C:\JP\facturador-backend\Facturador.Security.Domain.Services\AccountDomain.cs:line 77
   at Facturador.Security.API.Controllers.AccountController.Login(User model) in C:\JP\facturador-backend\Facturador.Security.API\Controllers\AccountController.cs:line 24
   at lambda_method(Closure , Object )
   at Microsoft.Extensions.Internal.ObjectMethodExecutorAwaitable.Awaiter.GetResult()
   at Microsoft.AspNetCore.Mvc.Internal.ActionMethodExecutor.AwaitableObjectResultExecutor.Execute(IActionResultTypeMapper mapper, ObjectMethodExecutor executor, Object controller, Object[] arguments)
   at System.Threading.Tasks.ValueTask`1.get_Result()
   at Microsoft.AspNetCore.Mvc.Internal.ControllerActionInvoker.InvokeActionMethodAsync()
   at Microsoft.AspNetCore.Mvc.Internal.ControllerActionInvoker.InvokeNextActionFilterAsync()
   at Microsoft.AspNetCore.Mvc.Internal.ControllerActionInvoker.Rethrow(ActionExecutedContext context)
   at Microsoft.AspNetCore.Mvc.Internal.ControllerActionInvoker.Next(State& next, Scope& scope, Object& state, Boolean& isCompleted)
   at Microsoft.AspNetCore.Mvc.Internal.ControllerActionInvoker.InvokeInnerFilterAsync()
   at Microsoft.AspNetCore.Mvc.Internal.ResourceInvoker.InvokeNextResourceFilter()
   at Microsoft.AspNetCore.Mvc.Internal.ResourceInvoker.Rethrow(ResourceExecutedContext context)
   at Microsoft.AspNetCore.Mvc.Internal.ResourceInvoker.Next(State& next, Scope& scope, Object& state, Boolean& isCompleted)
   at Microsoft.AspNetCore.Mvc.Internal.ResourceInvoker.InvokeFilterPipelineAsync()
   at Microsoft.AspNetCore.Mvc.Internal.ResourceInvoker.InvokeAsync()
   at Microsoft.AspNetCore.Routing.EndpointMiddleware.Invoke(HttpContext httpContext)
   at Microsoft.AspNetCore.Routing.EndpointRoutingMiddleware.Invoke(HttpContext httpContext)
   at Microsoft.AspNetCore.Diagnostics.ExceptionHandlerMiddleware.Invoke(HttpContext context)
2019-04-11 16:35:03,306 [21]  INFO Microsoft.AspNetCore.Mvc.Internal.ControllerActionInvoker [(null)] - Executed action method Facturador.Log.API.Controllers.LogController.Write (Facturador.Log.API), returned result Microsoft.AspNetCore.Mvc.OkObjectResult in 6789.0008ms. [2]
2019-04-11 16:35:03,312 [21]  INFO Microsoft.AspNetCore.Mvc.Infrastructure.ObjectResultExecutor [(null)] - Executing ObjectResult, writing value of type 'Facturador.Transversal.Common.Entities.StatusResponse`1[[System.Object, System.Private.CoreLib, Version=4.0.0.0, Culture=neutral, PublicKeyToken=7cec85d7bea7798e]]'. [1]
2019-04-11 16:35:03,322 [21]  INFO Microsoft.AspNetCore.Mvc.Internal.ControllerActionInvoker [(null)] - Executed action Facturador.Log.API.Controllers.LogController.Write (Facturador.Log.API) in 6813.5579ms [2]
2019-04-11 16:35:03,343 [21]  INFO Microsoft.AspNetCore.Routing.EndpointMiddleware [(null)] - Executed endpoint 'Facturador.Log.API.Controllers.LogController.Write (Facturador.Log.API)' [1]
2019-04-11 16:35:03,351 [21]  INFO Microsoft.AspNetCore.Hosting.Internal.WebHost [(null)] - Request finished in 6883.6576ms 200 application/json; charset=utf-8 [2]
2019-04-11 16:46:07,503 [1]  INFO Microsoft.AspNetCore.DataProtection.KeyManagement.XmlKeyManager [(null)] - User profile is available. Using 'C:\Users\jpvargas\AppData\Local\ASP.NET\DataProtection-Keys' as key repository and Windows DPAPI to encrypt keys at rest.
2019-04-11 16:46:08,671 [8]  INFO Microsoft.AspNetCore.Hosting.Internal.WebHost [(null)] - Request starting HTTP/1.1 GET http://localhost:63899/api/log   [1]
2019-04-11 16:46:08,691 [8]  WARN Microsoft.AspNetCore.HttpsPolicy.HttpsRedirectionMiddleware [(null)] - Failed to determine the https port for redirect. [3]
2019-04-11 16:46:08,830 [8]  INFO Microsoft.AspNetCore.Hosting.Internal.WebHost [(null)] - Request finished in 158.3263ms 404  [2]
2019-04-11 16:46:53,014 [8]  INFO Microsoft.AspNetCore.Hosting.Internal.WebHost [(null)] - Request starting HTTP/1.1 POST http://localhost:63899/api/log/write application/json; charset=utf-8 2400 [1]
2019-04-11 16:46:53,028 [8]  INFO Microsoft.AspNetCore.Routing.EndpointMiddleware [(null)] - Executing endpoint 'Facturador.Log.API.Controllers.LogController.Write (Facturador.Log.API)'
2019-04-11 16:46:53,102 [8]  INFO Microsoft.AspNetCore.Mvc.Internal.ControllerActionInvoker [(null)] - Route matched with {action = "Write", controller = "Log"}. Executing action Facturador.Log.API.Controllers.LogController.Write (Facturador.Log.API) [1]
2019-04-11 16:46:53,377 [8]  INFO Microsoft.AspNetCore.Mvc.Internal.ControllerActionInvoker [(null)] - Executing action method Facturador.Log.API.Controllers.LogController.Write (Facturador.Log.API) with arguments (Facturador.Transversal.Common.Entities.LogRequest) - Validation state: Valid [1]
2019-04-11 16:46:53,384 [8] ERROR Facturador.Log.Domain.Loging.LogDomain [(null)] - System.FormatException: Input string was not in a correct format.
   at System.Number.StringToNumber(ReadOnlySpan`1 str, NumberStyles options, NumberBuffer& number, NumberFormatInfo info, Boolean parseDecimal)
   at System.Number.ParseInt32(ReadOnlySpan`1 s, NumberStyles style, NumberFormatInfo info)
   at System.Int32.Parse(String s)
   at Facturador.Security.Domain.Services.AccountDomain.Login(User model) in C:\JP\facturador-backend\Facturador.Security.Domain.Services\AccountDomain.cs:line 77
   at Facturador.Security.API.Controllers.AccountController.Login(User model) in C:\JP\facturador-backend\Facturador.Security.API\Controllers\AccountController.cs:line 24
   at lambda_method(Closure , Object )
   at Microsoft.Extensions.Internal.ObjectMethodExecutorAwaitable.Awaiter.GetResult()
   at Microsoft.AspNetCore.Mvc.Internal.ActionMethodExecutor.AwaitableObjectResultExecutor.Execute(IActionResultTypeMapper mapper, ObjectMethodExecutor executor, Object controller, Object[] arguments)
   at System.Threading.Tasks.ValueTask`1.get_Result()
   at Microsoft.AspNetCore.Mvc.Internal.ControllerActionInvoker.InvokeActionMethodAsync()
   at Microsoft.AspNetCore.Mvc.Internal.ControllerActionInvoker.InvokeNextActionFilterAsync()
   at Microsoft.AspNetCore.Mvc.Internal.ControllerActionInvoker.Rethrow(ActionExecutedContext context)
   at Microsoft.AspNetCore.Mvc.Internal.ControllerActionInvoker.Next(State& next, Scope& scope, Object& state, Boolean& isCompleted)
   at Microsoft.AspNetCore.Mvc.Internal.ControllerActionInvoker.InvokeInnerFilterAsync()
   at Microsoft.AspNetCore.Mvc.Internal.ResourceInvoker.InvokeNextResourceFilter()
   at Microsoft.AspNetCore.Mvc.Internal.ResourceInvoker.Rethrow(ResourceExecutedContext context)
   at Microsoft.AspNetCore.Mvc.Internal.ResourceInvoker.Next(State& next, Scope& scope, Object& state, Boolean& isCompleted)
   at Microsoft.AspNetCore.Mvc.Internal.ResourceInvoker.InvokeFilterPipelineAsync()
   at Microsoft.AspNetCore.Mvc.Internal.ResourceInvoker.InvokeAsync()
   at Microsoft.AspNetCore.Routing.EndpointMiddleware.Invoke(HttpContext httpContext)
   at Microsoft.AspNetCore.Routing.EndpointRoutingMiddleware.Invoke(HttpContext httpContext)
   at Microsoft.AspNetCore.Diagnostics.ExceptionHandlerMiddleware.Invoke(HttpContext context)
2019-04-11 16:46:53,394 [8]  INFO Microsoft.AspNetCore.Mvc.Internal.ControllerActionInvoker [(null)] - Executed action method Facturador.Log.API.Controllers.LogController.Write (Facturador.Log.API), returned result Microsoft.AspNetCore.Mvc.OkObjectResult in 8.4051ms. [2]
2019-04-11 16:46:53,411 [8]  INFO Microsoft.AspNetCore.Mvc.Infrastructure.ObjectResultExecutor [(null)] - Executing ObjectResult, writing value of type 'Facturador.Transversal.Common.Entities.StatusResponse`1[[System.Object, System.Private.CoreLib, Version=4.0.0.0, Culture=neutral, PublicKeyToken=7cec85d7bea7798e]]'. [1]
2019-04-11 16:46:53,458 [8]  INFO Microsoft.AspNetCore.Mvc.Internal.ControllerActionInvoker [(null)] - Executed action Facturador.Log.API.Controllers.LogController.Write (Facturador.Log.API) in 347.522ms [2]
2019-04-11 16:46:53,486 [8]  INFO Microsoft.AspNetCore.Routing.EndpointMiddleware [(null)] - Executed endpoint 'Facturador.Log.API.Controllers.LogController.Write (Facturador.Log.API)' [1]
2019-04-11 16:46:53,495 [8]  INFO Microsoft.AspNetCore.Hosting.Internal.WebHost [(null)] - Request finished in 482.9671ms 200 application/json; charset=utf-8 [2]
2019-04-11 16:47:43,551 [8]  INFO Microsoft.AspNetCore.Hosting.Internal.WebHost [(null)] - Request starting HTTP/1.1 POST http://localhost:63899/api/log/write application/json; charset=utf-8 2400 [1]
2019-04-11 16:47:43,570 [8]  INFO Microsoft.AspNetCore.Routing.EndpointMiddleware [(null)] - Executing endpoint 'Facturador.Log.API.Controllers.LogController.Write (Facturador.Log.API)'
2019-04-11 16:47:43,644 [8]  INFO Microsoft.AspNetCore.Mvc.Internal.ControllerActionInvoker [(null)] - Route matched with {action = "Write", controller = "Log"}. Executing action Facturador.Log.API.Controllers.LogController.Write (Facturador.Log.API) [1]
2019-04-11 16:47:43,656 [8]  INFO Microsoft.AspNetCore.Mvc.Internal.ControllerActionInvoker [(null)] - Executing action method Facturador.Log.API.Controllers.LogController.Write (Facturador.Log.API) with arguments (Facturador.Transversal.Common.Entities.LogRequest) - Validation state: Valid [1]
2019-04-11 16:47:43,662 [8] ERROR Facturador.Log.Domain.Loging.LogDomain [(null)] - System.FormatException: Input string was not in a correct format.
   at System.Number.StringToNumber(ReadOnlySpan`1 str, NumberStyles options, NumberBuffer& number, NumberFormatInfo info, Boolean parseDecimal)
   at System.Number.ParseInt32(ReadOnlySpan`1 s, NumberStyles style, NumberFormatInfo info)
   at System.Int32.Parse(String s)
   at Facturador.Security.Domain.Services.AccountDomain.Login(User model) in C:\JP\facturador-backend\Facturador.Security.Domain.Services\AccountDomain.cs:line 77
   at Facturador.Security.API.Controllers.AccountController.Login(User model) in C:\JP\facturador-backend\Facturador.Security.API\Controllers\AccountController.cs:line 24
   at lambda_method(Closure , Object )
   at Microsoft.Extensions.Internal.ObjectMethodExecutorAwaitable.Awaiter.GetResult()
   at Microsoft.AspNetCore.Mvc.Internal.ActionMethodExecutor.AwaitableObjectResultExecutor.Execute(IActionResultTypeMapper mapper, ObjectMethodExecutor executor, Object controller, Object[] arguments)
   at System.Threading.Tasks.ValueTask`1.get_Result()
   at Microsoft.AspNetCore.Mvc.Internal.ControllerActionInvoker.InvokeActionMethodAsync()
   at Microsoft.AspNetCore.Mvc.Internal.ControllerActionInvoker.InvokeNextActionFilterAsync()
   at Microsoft.AspNetCore.Mvc.Internal.ControllerActionInvoker.Rethrow(ActionExecutedContext context)
   at Microsoft.AspNetCore.Mvc.Internal.ControllerActionInvoker.Next(State& next, Scope& scope, Object& state, Boolean& isCompleted)
   at Microsoft.AspNetCore.Mvc.Internal.ControllerActionInvoker.InvokeInnerFilterAsync()
   at Microsoft.AspNetCore.Mvc.Internal.ResourceInvoker.InvokeNextResourceFilter()
   at Microsoft.AspNetCore.Mvc.Internal.ResourceInvoker.Rethrow(ResourceExecutedContext context)
   at Microsoft.AspNetCore.Mvc.Internal.ResourceInvoker.Next(State& next, Scope& scope, Object& state, Boolean& isCompleted)
   at Microsoft.AspNetCore.Mvc.Internal.ResourceInvoker.InvokeFilterPipelineAsync()
   at Microsoft.AspNetCore.Mvc.Internal.ResourceInvoker.InvokeAsync()
   at Microsoft.AspNetCore.Routing.EndpointMiddleware.Invoke(HttpContext httpContext)
   at Microsoft.AspNetCore.Routing.EndpointRoutingMiddleware.Invoke(HttpContext httpContext)
   at Microsoft.AspNetCore.Diagnostics.ExceptionHandlerMiddleware.Invoke(HttpContext context)
2019-04-11 16:47:43,671 [8]  INFO Microsoft.AspNetCore.Mvc.Internal.ControllerActionInvoker [(null)] - Executed action method Facturador.Log.API.Controllers.LogController.Write (Facturador.Log.API), returned result Microsoft.AspNetCore.Mvc.OkObjectResult in 6.5785ms. [2]
2019-04-11 16:47:43,685 [8]  INFO Microsoft.AspNetCore.Mvc.Infrastructure.ObjectResultExecutor [(null)] - Executing ObjectResult, writing value of type 'Facturador.Transversal.Common.Entities.StatusResponse`1[[System.Object, System.Private.CoreLib, Version=4.0.0.0, Culture=neutral, PublicKeyToken=7cec85d7bea7798e]]'. [1]
2019-04-11 16:47:43,695 [8]  INFO Microsoft.AspNetCore.Mvc.Internal.ControllerActionInvoker [(null)] - Executed action Facturador.Log.API.Controllers.LogController.Write (Facturador.Log.API) in 40.1819ms [2]
2019-04-11 16:47:43,702 [8]  INFO Microsoft.AspNetCore.Routing.EndpointMiddleware [(null)] - Executed endpoint 'Facturador.Log.API.Controllers.LogController.Write (Facturador.Log.API)' [1]
2019-04-11 16:47:43,721 [8]  INFO Microsoft.AspNetCore.Hosting.Internal.WebHost [(null)] - Request finished in 184.0728ms 200 application/json; charset=utf-8 [2]
2019-04-11 16:49:04,457 [18]  INFO Microsoft.AspNetCore.Hosting.Internal.WebHost [(null)] - Request starting HTTP/1.1 POST http://localhost:63899/api/log/write application/json; charset=utf-8 2400 [1]
2019-04-11 16:49:04,462 [18]  INFO Microsoft.AspNetCore.Routing.EndpointMiddleware [(null)] - Executing endpoint 'Facturador.Log.API.Controllers.LogController.Write (Facturador.Log.API)'
2019-04-11 16:49:04,479 [18]  INFO Microsoft.AspNetCore.Mvc.Internal.ControllerActionInvoker [(null)] - Route matched with {action = "Write", controller = "Log"}. Executing action Facturador.Log.API.Controllers.LogController.Write (Facturador.Log.API) [1]
2019-04-11 16:49:04,483 [18]  INFO Microsoft.AspNetCore.Mvc.Internal.ControllerActionInvoker [(null)] - Executing action method Facturador.Log.API.Controllers.LogController.Write (Facturador.Log.API) with arguments (Facturador.Transversal.Common.Entities.LogRequest) - Validation state: Valid [1]
2019-04-11 16:49:04,487 [18] ERROR Facturador.Log.Domain.Loging.LogDomain [(null)] - System.FormatException: Input string was not in a correct format.
   at System.Number.StringToNumber(ReadOnlySpan`1 str, NumberStyles options, NumberBuffer& number, NumberFormatInfo info, Boolean parseDecimal)
   at System.Number.ParseInt32(ReadOnlySpan`1 s, NumberStyles style, NumberFormatInfo info)
   at System.Int32.Parse(String s)
   at Facturador.Security.Domain.Services.AccountDomain.Login(User model) in C:\JP\facturador-backend\Facturador.Security.Domain.Services\AccountDomain.cs:line 77
   at Facturador.Security.API.Controllers.AccountController.Login(User model) in C:\JP\facturador-backend\Facturador.Security.API\Controllers\AccountController.cs:line 24
   at lambda_method(Closure , Object )
   at Microsoft.Extensions.Internal.ObjectMethodExecutorAwaitable.Awaiter.GetResult()
   at Microsoft.AspNetCore.Mvc.Internal.ActionMethodExecutor.AwaitableObjectResultExecutor.Execute(IActionResultTypeMapper mapper, ObjectMethodExecutor executor, Object controller, Object[] arguments)
   at System.Threading.Tasks.ValueTask`1.get_Result()
   at Microsoft.AspNetCore.Mvc.Internal.ControllerActionInvoker.InvokeActionMethodAsync()
   at Microsoft.AspNetCore.Mvc.Internal.ControllerActionInvoker.InvokeNextActionFilterAsync()
   at Microsoft.AspNetCore.Mvc.Internal.ControllerActionInvoker.Rethrow(ActionExecutedContext context)
   at Microsoft.AspNetCore.Mvc.Internal.ControllerActionInvoker.Next(State& next, Scope& scope, Object& state, Boolean& isCompleted)
   at Microsoft.AspNetCore.Mvc.Internal.ControllerActionInvoker.InvokeInnerFilterAsync()
   at Microsoft.AspNetCore.Mvc.Internal.ResourceInvoker.InvokeNextResourceFilter()
   at Microsoft.AspNetCore.Mvc.Internal.ResourceInvoker.Rethrow(ResourceExecutedContext context)
   at Microsoft.AspNetCore.Mvc.Internal.ResourceInvoker.Next(State& next, Scope& scope, Object& state, Boolean& isCompleted)
   at Microsoft.AspNetCore.Mvc.Internal.ResourceInvoker.InvokeFilterPipelineAsync()
   at Microsoft.AspNetCore.Mvc.Internal.ResourceInvoker.InvokeAsync()
   at Microsoft.AspNetCore.Routing.EndpointMiddleware.Invoke(HttpContext httpContext)
   at Microsoft.AspNetCore.Routing.EndpointRoutingMiddleware.Invoke(HttpContext httpContext)
   at Microsoft.AspNetCore.Diagnostics.ExceptionHandlerMiddleware.Invoke(HttpContext context)
2019-04-11 16:49:04,492 [18]  INFO Microsoft.AspNetCore.Mvc.Internal.ControllerActionInvoker [(null)] - Executed action method Facturador.Log.API.Controllers.LogController.Write (Facturador.Log.API), returned result Microsoft.AspNetCore.Mvc.OkObjectResult in 3.3908ms. [2]
2019-04-11 16:49:04,495 [18]  INFO Microsoft.AspNetCore.Mvc.Infrastructure.ObjectResultExecutor [(null)] - Executing ObjectResult, writing value of type 'Facturador.Transversal.Common.Entities.StatusResponse`1[[System.Object, System.Private.CoreLib, Version=4.0.0.0, Culture=neutral, PublicKeyToken=7cec85d7bea7798e]]'. [1]
2019-04-11 16:49:04,500 [18]  INFO Microsoft.AspNetCore.Mvc.Internal.ControllerActionInvoker [(null)] - Executed action Facturador.Log.API.Controllers.LogController.Write (Facturador.Log.API) in 16.341ms [2]
2019-04-11 16:49:04,516 [18]  INFO Microsoft.AspNetCore.Routing.EndpointMiddleware [(null)] - Executed endpoint 'Facturador.Log.API.Controllers.LogController.Write (Facturador.Log.API)' [1]
2019-04-11 16:49:04,520 [18]  INFO Microsoft.AspNetCore.Hosting.Internal.WebHost [(null)] - Request finished in 62.8642ms 200 application/json; charset=utf-8 [2]
2019-04-11 18:28:36,337 [1]  INFO Microsoft.AspNetCore.DataProtection.KeyManagement.XmlKeyManager [(null)] - User profile is available. Using 'C:\Users\MICRO\AppData\Local\ASP.NET\DataProtection-Keys' as key repository and Windows DPAPI to encrypt keys at rest.
2019-04-11 18:28:37,646 [7]  INFO Microsoft.AspNetCore.Hosting.Internal.WebHost [(null)] - Request starting HTTP/1.1 GET http://localhost:63899/api/log   [1]
2019-04-11 18:28:37,661 [7]  WARN Microsoft.AspNetCore.HttpsPolicy.HttpsRedirectionMiddleware [(null)] - Failed to determine the https port for redirect. [3]
2019-04-11 18:28:37,791 [7]  INFO Microsoft.AspNetCore.Hosting.Internal.WebHost [(null)] - Request finished in 143.4713ms 404  [2]
2019-04-11 19:34:19,181 [17]  INFO Microsoft.AspNetCore.Hosting.Internal.WebHost [(null)] - Request starting HTTP/1.1 POST http://localhost:63899/api/log/write application/json; charset=utf-8 4927 [1]
2019-04-11 19:34:19,188 [17]  INFO Microsoft.AspNetCore.Routing.EndpointMiddleware [(null)] - Executing endpoint 'Facturador.Log.API.Controllers.LogController.Write (Facturador.Log.API)'
2019-04-11 19:34:19,226 [17]  INFO Microsoft.AspNetCore.Mvc.Internal.ControllerActionInvoker [(null)] - Route matched with {action = "Write", controller = "Log"}. Executing action Facturador.Log.API.Controllers.LogController.Write (Facturador.Log.API) [1]
2019-04-11 19:34:19,310 [17]  INFO Microsoft.AspNetCore.Mvc.Internal.ControllerActionInvoker [(null)] - Executing action method Facturador.Log.API.Controllers.LogController.Write (Facturador.Log.API) with arguments (Facturador.Transversal.Common.Entities.LogRequest) - Validation state: Valid [1]
2019-04-11 19:34:19,315 [17] ERROR Facturador.Log.Domain.Loging.LogDomain [(null)] - MySql.Data.MySqlClient.MySqlException (0x80004005): Table 'facturador.item' doesn't exist ---> MySql.Data.MySqlClient.MySqlException (0x80004005): Table 'facturador.item' doesn't exist
   at MySqlConnector.Core.ResultSet.ReadResultSetHeaderAsync(IOBehavior ioBehavior) in C:\projects\mysqlconnector\src\MySqlConnector\Core\ResultSet.cs:line 43
   at MySql.Data.MySqlClient.MySqlDataReader.ActivateResultSet(ResultSet resultSet) in C:\projects\mysqlconnector\src\MySqlConnector\MySql.Data.MySqlClient\MySqlDataReader.cs:line 81
   at MySql.Data.MySqlClient.MySqlDataReader.ReadFirstResultSetAsync(IOBehavior ioBehavior) in C:\projects\mysqlconnector\src\MySqlConnector\MySql.Data.MySqlClient\MySqlDataReader.cs:line 307
   at MySql.Data.MySqlClient.MySqlDataReader.CreateAsync(MySqlCommand command, CommandBehavior behavior, ResultSetProtocol resultSetProtocol, IOBehavior ioBehavior) in C:\projects\mysqlconnector\src\MySqlConnector\MySql.Data.MySqlClient\MySqlDataReader.cs:line 292
   at MySqlConnector.Core.TextCommandExecutor.ExecuteReaderAsync(String commandText, MySqlParameterCollection parameterCollection, CommandBehavior behavior, IOBehavior ioBehavior, CancellationToken cancellationToken) in C:\projects\mysqlconnector\src\MySqlConnector\Core\TextCommandExecutor.cs:line 37
   at MySql.Data.MySqlClient.MySqlCommand.ExecuteDbDataReader(CommandBehavior behavior) in C:\projects\mysqlconnector\src\MySqlConnector\MySql.Data.MySqlClient\MySqlCommand.cs:line 267
   at System.Data.Common.DbCommand.ExecuteReader()
   at Microsoft.EntityFrameworkCore.Storage.Internal.RelationalCommand.Execute(IRelationalConnection connection, DbCommandMethod executeMethod, IReadOnlyDictionary`2 parameterValues)
   at Microsoft.EntityFrameworkCore.Storage.Internal.RelationalCommand.ExecuteReader(IRelationalConnection connection, IReadOnlyDictionary`2 parameterValues)
   at Microsoft.EntityFrameworkCore.Query.Internal.QueryingEnumerable`1.Enumerator.BufferlessMoveNext(DbContext _, Boolean buffer)
   at Pomelo.EntityFrameworkCore.MySql.Storage.Internal.MySqlExecutionStrategy.Execute[TState,TResult](TState state, Func`3 operation, Func`3 verifySucceeded)
   at Microsoft.EntityFrameworkCore.Query.Internal.QueryingEnumerable`1.Enumerator.MoveNext()
   at Microsoft.EntityFrameworkCore.Query.Internal.LinqOperatorProvider._TrackEntities[TOut,TIn](IEnumerable`1 results, QueryContext queryContext, IList`1 entityTrackingInfos, IList`1 entityAccessors)+MoveNext()
   at Microsoft.EntityFrameworkCore.Query.Internal.LinqOperatorProvider.ExceptionInterceptor`1.EnumeratorExceptionInterceptor.MoveNext()
   at System.Collections.Generic.List`1.AddEnumerable(IEnumerable`1 enumerable)
   at System.Linq.Enumerable.ToList[TSource](IEnumerable`1 source)
   at Facturador.Core.Domain.Inventario.ItemDomain.Listar() in C:\repo\facturador-backend\Facturador.Core.Domain.Inventario\ItemDomain.cs:line 50
   at Facturador.Core.API.Inventario.Controllers.ItemController.Listar() in C:\repo\facturador-backend\Facturador.Core.API.Inventario\Controllers\ItemController.cs:line 33
   at lambda_method(Closure , Object , Object[] )
   at Microsoft.Extensions.Internal.ObjectMethodExecutor.Execute(Object target, Object[] parameters)
   at Microsoft.AspNetCore.Mvc.Internal.ActionMethodExecutor.SyncObjectResultExecutor.Execute(IActionResultTypeMapper mapper, ObjectMethodExecutor executor, Object controller, Object[] arguments)
   at Microsoft.AspNetCore.Mvc.Internal.ControllerActionInvoker.InvokeActionMethodAsync()
   at Microsoft.AspNetCore.Mvc.Internal.ControllerActionInvoker.InvokeNextActionFilterAsync()
   at Microsoft.AspNetCore.Mvc.Internal.ControllerActionInvoker.Rethrow(ActionExecutedContext context)
   at Microsoft.AspNetCore.Mvc.Internal.ControllerActionInvoker.Next(State& next, Scope& scope, Object& state, Boolean& isCompleted)
   at Microsoft.AspNetCore.Mvc.Internal.ControllerActionInvoker.InvokeInnerFilterAsync()
   at Microsoft.AspNetCore.Mvc.Internal.ResourceInvoker.InvokeNextResourceFilter()
   at Microsoft.AspNetCore.Mvc.Internal.ResourceInvoker.Rethrow(ResourceExecutedContext context)
   at Microsoft.AspNetCore.Mvc.Internal.ResourceInvoker.Next(State& next, Scope& scope, Object& state, Boolean& isCompleted)
   at Microsoft.AspNetCore.Mvc.Internal.ResourceInvoker.InvokeFilterPipelineAsync()
   at Microsoft.AspNetCore.Mvc.Internal.ResourceInvoker.InvokeAsync()
   at Microsoft.AspNetCore.Routing.EndpointMiddleware.Invoke(HttpContext httpContext)
   at Microsoft.AspNetCore.Routing.EndpointRoutingMiddleware.Invoke(HttpContext httpContext)
   at Microsoft.AspNetCore.Authentication.AuthenticationMiddleware.Invoke(HttpContext context)
   at Microsoft.AspNetCore.Diagnostics.ExceptionHandlerMiddleware.Invoke(HttpContext context)
2019-04-11 19:34:19,320 [17]  INFO Microsoft.AspNetCore.Mvc.Internal.ControllerActionInvoker [(null)] - Executed action method Facturador.Log.API.Controllers.LogController.Write (Facturador.Log.API), returned result Microsoft.AspNetCore.Mvc.OkObjectResult in 6.4373ms. [2]
2019-04-11 19:34:19,329 [17]  INFO Microsoft.AspNetCore.Mvc.Infrastructure.ObjectResultExecutor [(null)] - Executing ObjectResult, writing value of type 'Facturador.Transversal.Common.Entities.StatusResponse`1[[System.Object, System.Private.CoreLib, Version=4.0.0.0, Culture=neutral, PublicKeyToken=7cec85d7bea7798e]]'. [1]
2019-04-11 19:34:19,350 [17]  INFO Microsoft.AspNetCore.Mvc.Internal.ControllerActionInvoker [(null)] - Executed action Facturador.Log.API.Controllers.LogController.Write (Facturador.Log.API) in 119.7142ms [2]
2019-04-11 19:34:19,352 [17]  INFO Microsoft.AspNetCore.Routing.EndpointMiddleware [(null)] - Executed endpoint 'Facturador.Log.API.Controllers.LogController.Write (Facturador.Log.API)' [1]
2019-04-11 19:34:19,356 [17]  INFO Microsoft.AspNetCore.Hosting.Internal.WebHost [(null)] - Request finished in 175.2138ms 200 application/json; charset=utf-8 [2]
2019-04-11 19:38:14,975 [1]  INFO Microsoft.AspNetCore.DataProtection.KeyManagement.XmlKeyManager [(null)] - User profile is available. Using 'C:\Users\MICRO\AppData\Local\ASP.NET\DataProtection-Keys' as key repository and Windows DPAPI to encrypt keys at rest.
2019-04-11 19:38:15,720 [10]  INFO Microsoft.AspNetCore.Hosting.Internal.WebHost [(null)] - Request starting HTTP/1.1 GET http://localhost:63899/api/log   [1]
2019-04-11 19:38:15,734 [10]  WARN Microsoft.AspNetCore.HttpsPolicy.HttpsRedirectionMiddleware [(null)] - Failed to determine the https port for redirect. [3]
2019-04-11 19:38:15,802 [10]  INFO Microsoft.AspNetCore.Hosting.Internal.WebHost [(null)] - Request finished in 77.2241ms 404  [2]
2019-04-11 19:58:50,645 [1]  INFO Microsoft.AspNetCore.DataProtection.KeyManagement.XmlKeyManager [(null)] - User profile is available. Using 'C:\Users\MICRO\AppData\Local\ASP.NET\DataProtection-Keys' as key repository and Windows DPAPI to encrypt keys at rest.
2019-04-11 19:58:51,279 [9]  INFO Microsoft.AspNetCore.Hosting.Internal.WebHost [(null)] - Request starting HTTP/1.1 GET http://localhost:63899/api/log   [1]
2019-04-11 19:58:51,296 [9]  WARN Microsoft.AspNetCore.HttpsPolicy.HttpsRedirectionMiddleware [(null)] - Failed to determine the https port for redirect. [3]
2019-04-11 19:58:51,367 [9]  INFO Microsoft.AspNetCore.Hosting.Internal.WebHost [(null)] - Request finished in 88.7606ms 404  [2]
2019-04-11 20:05:50,201 [1]  INFO Microsoft.AspNetCore.DataProtection.KeyManagement.XmlKeyManager [(null)] - User profile is available. Using 'C:\Users\MICRO\AppData\Local\ASP.NET\DataProtection-Keys' as key repository and Windows DPAPI to encrypt keys at rest.
2019-04-11 20:05:50,998 [10]  INFO Microsoft.AspNetCore.Hosting.Internal.WebHost [(null)] - Request starting HTTP/1.1 GET http://localhost:63899/api/log   [1]
2019-04-11 20:05:51,012 [10]  WARN Microsoft.AspNetCore.HttpsPolicy.HttpsRedirectionMiddleware [(null)] - Failed to determine the https port for redirect. [3]
2019-04-11 20:05:51,136 [10]  INFO Microsoft.AspNetCore.Hosting.Internal.WebHost [(null)] - Request finished in 131.1508ms 404  [2]
2019-04-11 20:06:17,298 [10]  INFO Microsoft.AspNetCore.Hosting.Internal.WebHost [(null)] - Request starting HTTP/1.1 POST http://localhost:63899/api/log/write application/json; charset=utf-8 2293 [1]
2019-04-11 20:06:17,303 [10]  INFO Microsoft.AspNetCore.Routing.EndpointMiddleware [(null)] - Executing endpoint 'Facturador.Log.API.Controllers.LogController.Write (Facturador.Log.API)'
2019-04-11 20:06:17,332 [10]  INFO Microsoft.AspNetCore.Mvc.Internal.ControllerActionInvoker [(null)] - Route matched with {action = "Write", controller = "Log"}. Executing action Facturador.Log.API.Controllers.LogController.Write (Facturador.Log.API) [1]
2019-04-11 20:06:17,409 [10]  INFO Microsoft.AspNetCore.Mvc.Internal.ControllerActionInvoker [(null)] - Executing action method Facturador.Log.API.Controllers.LogController.Write (Facturador.Log.API) with arguments (Facturador.Transversal.Common.Entities.LogRequest) - Validation state: Valid [1]
2019-04-11 20:06:17,413 [10] ERROR Facturador.Log.Domain.Loging.LogDomain [(null)] - System.FormatException: Input string was not in a correct format.
   at System.Number.StringToNumber(ReadOnlySpan`1 str, NumberStyles options, NumberBuffer& number, NumberFormatInfo info, Boolean parseDecimal)
   at System.Number.ParseInt32(ReadOnlySpan`1 s, NumberStyles style, NumberFormatInfo info)
   at System.Int32.Parse(String s)
   at Facturador.Core.API.Inventario.Controllers.ItemController.Listar() in C:\repo\facturador-backend\Facturador.Core.API.Inventario\Controllers\ItemController.cs:line 33
   at lambda_method(Closure , Object , Object[] )
   at Microsoft.Extensions.Internal.ObjectMethodExecutor.Execute(Object target, Object[] parameters)
   at Microsoft.AspNetCore.Mvc.Internal.ActionMethodExecutor.SyncObjectResultExecutor.Execute(IActionResultTypeMapper mapper, ObjectMethodExecutor executor, Object controller, Object[] arguments)
   at Microsoft.AspNetCore.Mvc.Internal.ControllerActionInvoker.InvokeActionMethodAsync()
   at Microsoft.AspNetCore.Mvc.Internal.ControllerActionInvoker.InvokeNextActionFilterAsync()
   at Microsoft.AspNetCore.Mvc.Internal.ControllerActionInvoker.Rethrow(ActionExecutedContext context)
   at Microsoft.AspNetCore.Mvc.Internal.ControllerActionInvoker.Next(State& next, Scope& scope, Object& state, Boolean& isCompleted)
   at Microsoft.AspNetCore.Mvc.Internal.ControllerActionInvoker.InvokeInnerFilterAsync()
   at Microsoft.AspNetCore.Mvc.Internal.ResourceInvoker.InvokeNextResourceFilter()
   at Microsoft.AspNetCore.Mvc.Internal.ResourceInvoker.Rethrow(ResourceExecutedContext context)
   at Microsoft.AspNetCore.Mvc.Internal.ResourceInvoker.Next(State& next, Scope& scope, Object& state, Boolean& isCompleted)
   at Microsoft.AspNetCore.Mvc.Internal.ResourceInvoker.InvokeFilterPipelineAsync()
   at Microsoft.AspNetCore.Mvc.Internal.ResourceInvoker.InvokeAsync()
   at Microsoft.AspNetCore.Routing.EndpointMiddleware.Invoke(HttpContext httpContext)
   at Microsoft.AspNetCore.Routing.EndpointRoutingMiddleware.Invoke(HttpContext httpContext)
   at Microsoft.AspNetCore.Authentication.AuthenticationMiddleware.Invoke(HttpContext context)
   at Microsoft.AspNetCore.Diagnostics.ExceptionHandlerMiddleware.Invoke(HttpContext context)
2019-04-11 20:06:17,417 [10]  INFO Microsoft.AspNetCore.Mvc.Internal.ControllerActionInvoker [(null)] - Executed action method Facturador.Log.API.Controllers.LogController.Write (Facturador.Log.API), returned result Microsoft.AspNetCore.Mvc.OkObjectResult in 3.7431ms. [2]
2019-04-11 20:06:17,425 [10]  INFO Microsoft.AspNetCore.Mvc.Infrastructure.ObjectResultExecutor [(null)] - Executing ObjectResult, writing value of type 'Facturador.Transversal.Common.Entities.StatusResponse`1[[System.Object, System.Private.CoreLib, Version=4.0.0.0, Culture=neutral, PublicKeyToken=7cec85d7bea7798e]]'. [1]
2019-04-11 20:06:17,444 [10]  INFO Microsoft.AspNetCore.Mvc.Internal.ControllerActionInvoker [(null)] - Executed action Facturador.Log.API.Controllers.LogController.Write (Facturador.Log.API) in 107.1409ms [2]
2019-04-11 20:06:17,446 [10]  INFO Microsoft.AspNetCore.Routing.EndpointMiddleware [(null)] - Executed endpoint 'Facturador.Log.API.Controllers.LogController.Write (Facturador.Log.API)' [1]
2019-04-11 20:06:17,450 [10]  INFO Microsoft.AspNetCore.Hosting.Internal.WebHost [(null)] - Request finished in 151.9474ms 200 application/json; charset=utf-8 [2]
2019-04-11 20:08:19,660 [14]  INFO Microsoft.AspNetCore.Hosting.Internal.WebHost [(null)] - Request starting HTTP/1.1 POST http://localhost:63899/api/log/write application/json; charset=utf-8 2293 [1]
2019-04-11 20:08:19,664 [14]  INFO Microsoft.AspNetCore.Routing.EndpointMiddleware [(null)] - Executing endpoint 'Facturador.Log.API.Controllers.LogController.Write (Facturador.Log.API)'
2019-04-11 20:08:19,675 [14]  INFO Microsoft.AspNetCore.Mvc.Internal.ControllerActionInvoker [(null)] - Route matched with {action = "Write", controller = "Log"}. Executing action Facturador.Log.API.Controllers.LogController.Write (Facturador.Log.API) [1]
2019-04-11 20:08:19,680 [14]  INFO Microsoft.AspNetCore.Mvc.Internal.ControllerActionInvoker [(null)] - Executing action method Facturador.Log.API.Controllers.LogController.Write (Facturador.Log.API) with arguments (Facturador.Transversal.Common.Entities.LogRequest) - Validation state: Valid [1]
2019-04-11 20:08:19,684 [14] ERROR Facturador.Log.Domain.Loging.LogDomain [(null)] - System.FormatException: Input string was not in a correct format.
   at System.Number.StringToNumber(ReadOnlySpan`1 str, NumberStyles options, NumberBuffer& number, NumberFormatInfo info, Boolean parseDecimal)
   at System.Number.ParseInt32(ReadOnlySpan`1 s, NumberStyles style, NumberFormatInfo info)
   at System.Int32.Parse(String s)
   at Facturador.Core.API.Inventario.Controllers.ItemController.Listar() in C:\repo\facturador-backend\Facturador.Core.API.Inventario\Controllers\ItemController.cs:line 33
   at lambda_method(Closure , Object , Object[] )
   at Microsoft.Extensions.Internal.ObjectMethodExecutor.Execute(Object target, Object[] parameters)
   at Microsoft.AspNetCore.Mvc.Internal.ActionMethodExecutor.SyncObjectResultExecutor.Execute(IActionResultTypeMapper mapper, ObjectMethodExecutor executor, Object controller, Object[] arguments)
   at Microsoft.AspNetCore.Mvc.Internal.ControllerActionInvoker.InvokeActionMethodAsync()
   at Microsoft.AspNetCore.Mvc.Internal.ControllerActionInvoker.InvokeNextActionFilterAsync()
   at Microsoft.AspNetCore.Mvc.Internal.ControllerActionInvoker.Rethrow(ActionExecutedContext context)
   at Microsoft.AspNetCore.Mvc.Internal.ControllerActionInvoker.Next(State& next, Scope& scope, Object& state, Boolean& isCompleted)
   at Microsoft.AspNetCore.Mvc.Internal.ControllerActionInvoker.InvokeInnerFilterAsync()
   at Microsoft.AspNetCore.Mvc.Internal.ResourceInvoker.InvokeNextResourceFilter()
   at Microsoft.AspNetCore.Mvc.Internal.ResourceInvoker.Rethrow(ResourceExecutedContext context)
   at Microsoft.AspNetCore.Mvc.Internal.ResourceInvoker.Next(State& next, Scope& scope, Object& state, Boolean& isCompleted)
   at Microsoft.AspNetCore.Mvc.Internal.ResourceInvoker.InvokeFilterPipelineAsync()
   at Microsoft.AspNetCore.Mvc.Internal.ResourceInvoker.InvokeAsync()
   at Microsoft.AspNetCore.Routing.EndpointMiddleware.Invoke(HttpContext httpContext)
   at Microsoft.AspNetCore.Routing.EndpointRoutingMiddleware.Invoke(HttpContext httpContext)
   at Microsoft.AspNetCore.Authentication.AuthenticationMiddleware.Invoke(HttpContext context)
   at Microsoft.AspNetCore.Diagnostics.ExceptionHandlerMiddleware.Invoke(HttpContext context)
2019-04-11 20:08:19,688 [14]  INFO Microsoft.AspNetCore.Mvc.Internal.ControllerActionInvoker [(null)] - Executed action method Facturador.Log.API.Controllers.LogController.Write (Facturador.Log.API), returned result Microsoft.AspNetCore.Mvc.OkObjectResult in 3.6781ms. [2]
2019-04-11 20:08:19,693 [14]  INFO Microsoft.AspNetCore.Mvc.Infrastructure.ObjectResultExecutor [(null)] - Executing ObjectResult, writing value of type 'Facturador.Transversal.Common.Entities.StatusResponse`1[[System.Object, System.Private.CoreLib, Version=4.0.0.0, Culture=neutral, PublicKeyToken=7cec85d7bea7798e]]'. [1]
2019-04-11 20:08:19,697 [14]  INFO Microsoft.AspNetCore.Mvc.Internal.ControllerActionInvoker [(null)] - Executed action Facturador.Log.API.Controllers.LogController.Write (Facturador.Log.API) in 18.1319ms [2]
2019-04-11 20:08:19,707 [14]  INFO Microsoft.AspNetCore.Routing.EndpointMiddleware [(null)] - Executed endpoint 'Facturador.Log.API.Controllers.LogController.Write (Facturador.Log.API)' [1]
2019-04-11 20:08:19,710 [14]  INFO Microsoft.AspNetCore.Hosting.Internal.WebHost [(null)] - Request finished in 53.5021ms 200 application/json; charset=utf-8 [2]
2019-04-11 20:40:09,530 [1]  INFO Microsoft.AspNetCore.DataProtection.KeyManagement.XmlKeyManager [(null)] - User profile is available. Using 'C:\Users\MICRO\AppData\Local\ASP.NET\DataProtection-Keys' as key repository and Windows DPAPI to encrypt keys at rest.
2019-04-11 20:40:10,698 [10]  INFO Microsoft.AspNetCore.Hosting.Internal.WebHost [(null)] - Request starting HTTP/1.1 GET http://localhost:63899/api/log   [1]
2019-04-11 20:40:10,709 [10]  WARN Microsoft.AspNetCore.HttpsPolicy.HttpsRedirectionMiddleware [(null)] - Failed to determine the https port for redirect. [3]
2019-04-11 20:40:10,848 [10]  INFO Microsoft.AspNetCore.Hosting.Internal.WebHost [(null)] - Request finished in 135.2304ms 404  [2]
2019-04-11 20:41:33,496 [13]  INFO Microsoft.AspNetCore.Hosting.Internal.WebHost [(null)] - Request starting HTTP/1.1 POST http://localhost:63899/api/log/write application/json; charset=utf-8 2293 [1]
2019-04-11 20:41:33,503 [13]  INFO Microsoft.AspNetCore.Routing.EndpointMiddleware [(null)] - Executing endpoint 'Facturador.Log.API.Controllers.LogController.Write (Facturador.Log.API)'
2019-04-11 20:41:33,530 [13]  INFO Microsoft.AspNetCore.Mvc.Internal.ControllerActionInvoker [(null)] - Route matched with {action = "Write", controller = "Log"}. Executing action Facturador.Log.API.Controllers.LogController.Write (Facturador.Log.API) [1]
2019-04-11 20:41:33,623 [13]  INFO Microsoft.AspNetCore.Mvc.Internal.ControllerActionInvoker [(null)] - Executing action method Facturador.Log.API.Controllers.LogController.Write (Facturador.Log.API) with arguments (Facturador.Transversal.Common.Entities.LogRequest) - Validation state: Valid [1]
2019-04-11 20:41:33,627 [13] ERROR Facturador.Log.Domain.Loging.LogDomain [(null)] - System.FormatException: Input string was not in a correct format.
   at System.Number.StringToNumber(ReadOnlySpan`1 str, NumberStyles options, NumberBuffer& number, NumberFormatInfo info, Boolean parseDecimal)
   at System.Number.ParseInt32(ReadOnlySpan`1 s, NumberStyles style, NumberFormatInfo info)
   at System.Int32.Parse(String s)
   at Facturador.Core.API.Inventario.Controllers.ItemController.Listar() in C:\repo\facturador-backend\Facturador.Core.API.Inventario\Controllers\ItemController.cs:line 33
   at lambda_method(Closure , Object , Object[] )
   at Microsoft.Extensions.Internal.ObjectMethodExecutor.Execute(Object target, Object[] parameters)
   at Microsoft.AspNetCore.Mvc.Internal.ActionMethodExecutor.SyncObjectResultExecutor.Execute(IActionResultTypeMapper mapper, ObjectMethodExecutor executor, Object controller, Object[] arguments)
   at Microsoft.AspNetCore.Mvc.Internal.ControllerActionInvoker.InvokeActionMethodAsync()
   at Microsoft.AspNetCore.Mvc.Internal.ControllerActionInvoker.InvokeNextActionFilterAsync()
   at Microsoft.AspNetCore.Mvc.Internal.ControllerActionInvoker.Rethrow(ActionExecutedContext context)
   at Microsoft.AspNetCore.Mvc.Internal.ControllerActionInvoker.Next(State& next, Scope& scope, Object& state, Boolean& isCompleted)
   at Microsoft.AspNetCore.Mvc.Internal.ControllerActionInvoker.InvokeInnerFilterAsync()
   at Microsoft.AspNetCore.Mvc.Internal.ResourceInvoker.InvokeNextResourceFilter()
   at Microsoft.AspNetCore.Mvc.Internal.ResourceInvoker.Rethrow(ResourceExecutedContext context)
   at Microsoft.AspNetCore.Mvc.Internal.ResourceInvoker.Next(State& next, Scope& scope, Object& state, Boolean& isCompleted)
   at Microsoft.AspNetCore.Mvc.Internal.ResourceInvoker.InvokeFilterPipelineAsync()
   at Microsoft.AspNetCore.Mvc.Internal.ResourceInvoker.InvokeAsync()
   at Microsoft.AspNetCore.Routing.EndpointMiddleware.Invoke(HttpContext httpContext)
   at Microsoft.AspNetCore.Routing.EndpointRoutingMiddleware.Invoke(HttpContext httpContext)
   at Microsoft.AspNetCore.Authentication.AuthenticationMiddleware.Invoke(HttpContext context)
   at Microsoft.AspNetCore.Diagnostics.ExceptionHandlerMiddleware.Invoke(HttpContext context)
2019-04-11 20:41:33,633 [13]  INFO Microsoft.AspNetCore.Mvc.Internal.ControllerActionInvoker [(null)] - Executed action method Facturador.Log.API.Controllers.LogController.Write (Facturador.Log.API), returned result Microsoft.AspNetCore.Mvc.OkObjectResult in 6.0265ms. [2]
2019-04-11 20:41:33,643 [13]  INFO Microsoft.AspNetCore.Mvc.Infrastructure.ObjectResultExecutor [(null)] - Executing ObjectResult, writing value of type 'Facturador.Transversal.Common.Entities.StatusResponse`1[[System.Object, System.Private.CoreLib, Version=4.0.0.0, Culture=neutral, PublicKeyToken=7cec85d7bea7798e]]'. [1]
2019-04-11 20:41:33,665 [13]  INFO Microsoft.AspNetCore.Mvc.Internal.ControllerActionInvoker [(null)] - Executed action Facturador.Log.API.Controllers.LogController.Write (Facturador.Log.API) in 129.493ms [2]
2019-04-11 20:41:33,668 [13]  INFO Microsoft.AspNetCore.Routing.EndpointMiddleware [(null)] - Executed endpoint 'Facturador.Log.API.Controllers.LogController.Write (Facturador.Log.API)' [1]
2019-04-11 20:41:33,672 [13]  INFO Microsoft.AspNetCore.Hosting.Internal.WebHost [(null)] - Request finished in 176.3879ms 200 application/json; charset=utf-8 [2]
2019-04-11 20:47:38,418 [1]  INFO Microsoft.AspNetCore.DataProtection.KeyManagement.XmlKeyManager [(null)] - User profile is available. Using 'C:\Users\MICRO\AppData\Local\ASP.NET\DataProtection-Keys' as key repository and Windows DPAPI to encrypt keys at rest.
2019-04-11 20:47:39,228 [10]  INFO Microsoft.AspNetCore.Hosting.Internal.WebHost [(null)] - Request starting HTTP/1.1 GET http://localhost:63899/api/log   [1]
2019-04-11 20:47:39,250 [10]  WARN Microsoft.AspNetCore.HttpsPolicy.HttpsRedirectionMiddleware [(null)] - Failed to determine the https port for redirect. [3]
2019-04-11 20:47:39,347 [10]  INFO Microsoft.AspNetCore.Hosting.Internal.WebHost [(null)] - Request finished in 119.5805ms 404  [2]
2019-04-11 20:52:52,820 [1]  INFO Microsoft.AspNetCore.DataProtection.KeyManagement.XmlKeyManager [(null)] - User profile is available. Using 'C:\Users\MICRO\AppData\Local\ASP.NET\DataProtection-Keys' as key repository and Windows DPAPI to encrypt keys at rest.
2019-04-11 20:52:53,654 [10]  INFO Microsoft.AspNetCore.Hosting.Internal.WebHost [(null)] - Request starting HTTP/1.1 GET http://localhost:63899/api/log   [1]
2019-04-11 20:52:53,669 [10]  WARN Microsoft.AspNetCore.HttpsPolicy.HttpsRedirectionMiddleware [(null)] - Failed to determine the https port for redirect. [3]
2019-04-11 20:52:53,745 [10]  INFO Microsoft.AspNetCore.Hosting.Internal.WebHost [(null)] - Request finished in 93.6073ms 404  [2]
